<svg width="199" height="9" viewBox="0 0 199 9" fill="none" xmlns="http://www.w3.org/2000/svg">
<rect opacity="0.25" y="4.34998" width="76.1958" height="0.194158" fill="#313131"/>
<path opacity="0.5" d="M84.5455 6.48508C84.1939 6.48508 83.8731 6.40353 83.5832 6.24044C83.2933 6.07372 83.0631 5.84358 82.8928 5.55001C82.7261 5.25282 82.6427 4.91939 82.6427 4.54971C82.6427 4.18003 82.7261 3.84841 82.8928 3.55484C83.0631 3.25765 83.2933 3.02751 83.5832 2.86442C83.8731 2.6977 84.1939 2.61434 84.5455 2.61434C84.9006 2.61434 85.2232 2.6977 85.5131 2.86442C85.8031 3.02751 86.0314 3.25584 86.1981 3.54941C86.3648 3.84297 86.4482 4.17641 86.4482 4.54971C86.4482 4.92301 86.3648 5.25644 86.1981 5.55001C86.0314 5.84358 85.8031 6.07372 85.5131 6.24044C85.2232 6.40353 84.9006 6.48508 84.5455 6.48508ZM84.5455 6.0556C84.81 6.0556 85.0474 5.99399 85.2576 5.87076C85.4715 5.74753 85.6382 5.57176 85.7578 5.34343C85.881 5.1151 85.9426 4.85053 85.9426 4.54971C85.9426 4.24527 85.881 3.9807 85.7578 3.75599C85.6382 3.52766 85.4733 3.35188 85.2631 3.22866C85.0528 3.10543 84.8136 3.04382 84.5455 3.04382C84.2773 3.04382 84.0381 3.10543 83.8278 3.22866C83.6176 3.35188 83.4509 3.52766 83.3277 3.75599C83.2081 3.9807 83.1483 4.24527 83.1483 4.54971C83.1483 4.85053 83.2081 5.1151 83.3277 5.34343C83.4509 5.57176 83.6176 5.74753 83.8278 5.87076C84.0417 5.99399 84.2809 6.0556 84.5455 6.0556ZM87.596 3.9517C87.683 3.78136 87.8062 3.64908 87.9657 3.55484C88.1288 3.46061 88.3263 3.4135 88.5583 3.4135V3.92452H88.4278C87.8733 3.92452 87.596 4.22534 87.596 4.82697V6.44702H87.1013V3.46786H87.596V3.9517ZM91.0734 2.42407V6.44702H90.5787V2.42407H91.0734ZM93.2159 6.49595C92.9368 6.49595 92.6831 6.43252 92.4548 6.30567C92.2301 6.17882 92.0525 5.99942 91.922 5.76747C91.7951 5.53189 91.7317 5.26007 91.7317 4.952C91.7317 4.64757 91.797 4.37937 91.9274 4.14741C92.0615 3.91184 92.2427 3.73243 92.4711 3.60921C92.6994 3.48236 92.9549 3.41893 93.2376 3.41893C93.5203 3.41893 93.7758 3.48236 94.0041 3.60921C94.2325 3.73243 94.4119 3.91002 94.5424 4.14198C94.6765 4.37393 94.7435 4.64394 94.7435 4.952C94.7435 5.26007 94.6746 5.53189 94.5369 5.76747C94.4028 5.99942 94.2198 6.17882 93.9878 6.30567C93.7559 6.43252 93.4986 6.49595 93.2159 6.49595ZM93.2159 6.06104C93.3935 6.06104 93.5602 6.01936 93.716 5.936C93.8719 5.85264 93.9969 5.7276 94.0911 5.56088C94.189 5.39417 94.2379 5.19121 94.2379 4.952C94.2379 4.7128 94.1908 4.50984 94.0966 4.34313C94.0023 4.17641 93.8791 4.05318 93.7269 3.97345C93.5747 3.89009 93.4098 3.84841 93.2322 3.84841C93.051 3.84841 92.8842 3.89009 92.732 3.97345C92.5834 4.05318 92.4638 4.17641 92.3732 4.34313C92.2826 4.50984 92.2373 4.7128 92.2373 4.952C92.2373 5.19483 92.2808 5.3996 92.3678 5.56632C92.4584 5.73304 92.578 5.85808 92.7266 5.94143C92.8752 6.02117 93.0383 6.06104 93.2159 6.06104ZM96.6226 3.41893C96.8799 3.41893 97.1046 3.47511 97.2967 3.58746C97.4924 3.69982 97.6374 3.84116 97.7316 4.0115V3.46786H98.2318V6.51226C98.2318 6.78408 98.1738 7.02509 98.0578 7.2353C97.9418 7.44914 97.7751 7.61585 97.5577 7.73545C97.3438 7.85506 97.0938 7.91486 96.8074 7.91486C96.416 7.91486 96.0898 7.82244 95.8289 7.6376C95.5679 7.45276 95.4139 7.20087 95.3668 6.88194H95.8561C95.9104 7.06315 96.0228 7.20812 96.1931 7.31685C96.3635 7.4292 96.5682 7.48538 96.8074 7.48538C97.0793 7.48538 97.3003 7.40021 97.4707 7.22987C97.6446 7.05953 97.7316 6.82032 97.7316 6.51226V5.88707C97.6338 6.06104 97.4888 6.20601 97.2967 6.32198C97.1046 6.43796 96.8799 6.49595 96.6226 6.49595C96.358 6.49595 96.117 6.43071 95.8995 6.30024C95.6857 6.16976 95.5172 5.98674 95.394 5.75116C95.2707 5.51558 95.2091 5.24738 95.2091 4.94657C95.2091 4.64213 95.2707 4.37574 95.394 4.14741C95.5172 3.91546 95.6857 3.73606 95.8995 3.60921C96.117 3.48236 96.358 3.41893 96.6226 3.41893ZM97.7316 4.952C97.7316 4.7273 97.6863 4.53159 97.5957 4.36487C97.5051 4.19815 97.3819 4.0713 97.226 3.98432C97.0738 3.89371 96.9053 3.84841 96.7204 3.84841C96.5356 3.84841 96.3671 3.8919 96.2149 3.97888C96.0626 4.06587 95.9412 4.19272 95.8506 4.35943C95.76 4.52615 95.7147 4.72186 95.7147 4.94657C95.7147 5.1749 95.76 5.37423 95.8506 5.54458C95.9412 5.71129 96.0626 5.83995 96.2149 5.93056C96.3671 6.01754 96.5356 6.06104 96.7204 6.06104C96.9053 6.06104 97.0738 6.01754 97.226 5.93056C97.3819 5.83995 97.5051 5.71129 97.5957 5.54458C97.6863 5.37423 97.7316 5.17671 97.7316 4.952ZM99.3233 2.98402C99.2291 2.98402 99.1493 2.9514 99.0841 2.88616C99.0189 2.82093 98.9862 2.74119 98.9862 2.64696C98.9862 2.55273 99.0189 2.473 99.0841 2.40776C99.1493 2.34252 99.2291 2.3099 99.3233 2.3099C99.4139 2.3099 99.49 2.34252 99.5516 2.40776C99.6169 2.473 99.6495 2.55273 99.6495 2.64696C99.6495 2.74119 99.6169 2.82093 99.5516 2.88616C99.49 2.9514 99.4139 2.98402 99.3233 2.98402ZM99.5625 3.46786V6.44702H99.0678V3.46786H99.5625ZM101.857 3.4135C102.22 3.4135 102.513 3.52404 102.738 3.74512C102.963 3.96258 103.075 4.27789 103.075 4.69106V6.44702H102.586V4.76173C102.586 4.46454 102.511 4.23802 102.363 4.08218C102.214 3.92271 102.011 3.84297 101.754 3.84297C101.493 3.84297 101.285 3.92452 101.129 4.08761C100.976 4.25071 100.9 4.4881 100.9 4.79979V6.44702H100.406V3.46786H100.9V3.8919C100.998 3.73968 101.131 3.62189 101.297 3.53853C101.468 3.45518 101.654 3.4135 101.857 3.4135ZM109.301 3.46786L108.371 6.44702H107.86L107.143 4.08218L106.425 6.44702H105.914L104.979 3.46786H105.485L106.17 5.96862L106.909 3.46786H107.415L108.138 5.97405L108.812 3.46786H109.301ZM110.048 2.98402C109.953 2.98402 109.874 2.9514 109.808 2.88616C109.743 2.82093 109.71 2.74119 109.71 2.64696C109.71 2.55273 109.743 2.473 109.808 2.40776C109.874 2.34252 109.953 2.3099 110.048 2.3099C110.138 2.3099 110.214 2.34252 110.276 2.40776C110.341 2.473 110.374 2.55273 110.374 2.64696C110.374 2.74119 110.341 2.82093 110.276 2.88616C110.214 2.9514 110.138 2.98402 110.048 2.98402ZM110.287 3.46786V6.44702H109.792V3.46786H110.287ZM111.733 3.87559V5.63156C111.733 5.77653 111.764 5.87982 111.826 5.94143C111.887 5.99942 111.994 6.02842 112.146 6.02842H112.511V6.44702H112.065C111.789 6.44702 111.583 6.3836 111.445 6.25675C111.307 6.1299 111.239 5.9215 111.239 5.63156V3.87559H110.853V3.46786H111.239V2.71763H111.733V3.46786H112.511V3.87559H111.733ZM114.589 3.4135C114.814 3.4135 115.016 3.46242 115.198 3.56028C115.379 3.65451 115.52 3.79767 115.622 3.98976C115.727 4.18184 115.779 4.41561 115.779 4.69106V6.44702H115.29V4.76173C115.29 4.46454 115.216 4.23802 115.067 4.08218C114.919 3.92271 114.716 3.84297 114.458 3.84297C114.197 3.84297 113.989 3.92452 113.833 4.08761C113.681 4.25071 113.605 4.4881 113.605 4.79979V6.44702H113.11V2.42407H113.605V3.8919C113.703 3.73968 113.837 3.62189 114.007 3.53853C114.181 3.45518 114.375 3.4135 114.589 3.4135Z" fill="#313131"/>
<rect opacity="0.25" x="122.622" y="4.34998" width="76.1958" height="0.194158" fill="#313131"/>
</svg>
