<svg width="13" height="17" viewBox="0 0 13 17" fill="none" xmlns="http://www.w3.org/2000/svg">
<path d="M2.41557 1.82239C4.09467 0.371875 6.60167 0.0257878 8.66627 0.817208C11.6234 1.86056 13.3336 5.3138 12.5134 8.26317C12.1538 9.48975 11.4553 10.5789 10.7852 11.6604C10.1746 10.6273 9.31307 9.76967 8.24973 9.18692C9.11127 8.2988 9.69339 6.97298 9.10092 5.78712C8.39202 3.91418 5.59784 3.36451 4.27577 4.9219C3.03391 6.12303 3.39354 8.08759 4.53967 9.22C3.47891 9.72641 2.66912 10.5891 2.17237 11.635C0.992603 10.1921 0.0482712 8.41586 0.229376 6.50729C0.131062 4.7056 1.07022 2.99552 2.41557 1.82239Z" fill="#3869EB"/>
<path d="M4.47754 14.4672C4.86303 12.7266 5.10882 10.9605 5.46844 9.21484C6.07902 9.21739 6.68702 9.21739 7.2976 9.21739C7.67274 10.9504 7.94181 12.7037 8.29885 14.4418C7.67792 14.9991 7.18376 15.8389 6.38949 16.1213C5.60815 15.8236 5.10882 15.0042 4.47754 14.4672Z" fill="#3869EB"/>
</svg>
